G G G G G E R R R R
G G G G R R R E E E
G G G R E R E R E R
E R R R E E R E R E
R E E E R E E E R E
E R R R E R R R R E
E R R E R R E R R R
R E R E E E R R G G
E R E E R R R G G G
E R E R E R G G G G
