F E R G E B E B R R
F R R F G R F G F F
F B B E E F F G E G
G G G G G R F G B F
R B R G R E B B B E
E R E E G B R G G B
E G F B B R F F B G
G G G R F R G F R F
R B E B G E F B R G
G F E F F G F G G B